Supplementary materials for EBI-ADHD
…
summary_per_intervention_prop

## # A tibble: 32 × 6
##    Intervention         Risk_of_bias Heterogeneity Publication_bias Indirectness
##    <chr>                       <dbl>         <dbl>            <dbl>        <dbl>
##  1 Acupuncture                0              0.6             0                 0
##  2 Alpha-2 agonists (g…       0.133          0.533           0.2               0
##  3 Amphetamines               0.0930         0.419           0.140             0
##  4 Atomoxetine                0.1            0.5             0.133             0
##  5 Bupropion                  0.154          0.192           0.0769            0
##  6 Carnitine                  0.333          0               0.333             0
##  7 Centafanadine              0              0.5             0.25              0
##  8 Cognitive Behaviora…       0.0333         0.333           0.1               0
##  9 Cognitive training         0.444          0.111           0.0556            0
## 10 Dasotraline                0              0.609           0.0870            0
## # ℹ 22 more rows
## # ℹ 1 more variable: Imprecision <dbl>
…
